Questa_post_DC/control_fsm_tb.vcd
$date
	Mon Mar  2 23:29:29 2026
$end
$version
	QuestaSim Version 2023.2
$end
$timescale
	10ps
$end

$scope module control_fsm_tb $end
$var reg 1 ! clka $end
$var reg 1 " clkb $end
$var reg 1 # rst $end
$var reg 4 $ opcode [3:0] $end
$var reg 1 % zero_flag $end
$var reg 1 & counter_done $end
$var reg 1 ' mmio_addr $end
$var wire 1 ( pc_write $end
$var wire 1 ) pc_src $end
$var wire 1 * ir_load $end
$var wire 1 + reg_write $end
$var wire 1 , alu_op [3] $end
$var wire 1 - alu_op [2] $end
$var wire 1 . alu_op [1] $end
$var wire 1 / alu_op [0] $end
$var wire 1 0 alu_src $end
$var wire 1 1 mem_read $end
$var wire 1 2 mem_write $end
$var wire 1 3 mem_to_reg $end
$var wire 1 4 shifter_en $end
$var wire 1 5 counter_en $end
$var wire 1 6 out_port_en $end
$var wire 1 7 shifter_op [1] $end
$var wire 1 8 shifter_op [0] $end

$scope task run_cycle $end
$upscope $end

$scope module U1 $end
$var wire 1 9 opcode [3] $end
$var wire 1 : opcode [2] $end
$var wire 1 ; opcode [1] $end
$var wire 1 < opcode [0] $end
$var wire 1 , alu_op [3] $end
$var wire 1 - alu_op [2] $end
$var wire 1 . alu_op [1] $end
$var wire 1 / alu_op [0] $end
$var wire 1 7 shifter_op [1] $end
$var wire 1 8 shifter_op [0] $end
$var wire 1 = clka $end
$var wire 1 > clkb $end
$var wire 1 ? rst $end
$var wire 1 @ zero_flag $end
$var wire 1 A counter_done $end
$var wire 1 B mmio_addr $end
$var wire 1 ( pc_write $end
$var wire 1 ) pc_src $end
$var wire 1 * ir_load $end
$var wire 1 + reg_write $end
$var wire 1 0 alu_src $end
$var wire 1 1 mem_read $end
$var wire 1 2 mem_write $end
$var wire 1 3 mem_to_reg $end
$var wire 1 4 shifter_en $end
$var wire 1 5 counter_en $end
$var wire 1 6 out_port_en $end
$var wire 1 C N100 $end
$var wire 1 D N176 $end
$var wire 1 E N179 $end
$var wire 1 F N180 $end
$var wire 1 G N181 $end
$var wire 1 H N183 $end
$var wire 1 I N184 $end
$var wire 1 J N185 $end
$var wire 1 K N188 $end
$var wire 1 L N189 $end
$var wire 1 M N190 $end
$var wire 1 N N191 $end
$var wire 1 O n1 $end
$var wire 1 P n2 $end
$var wire 1 Q n3 $end
$var wire 1 R n4 $end
$var wire 1 S n5 $end
$var wire 1 T n6 $end
$var wire 1 U n7 $end
$var wire 1 V n8 $end
$var wire 1 W n9 $end
$var wire 1 X n10 $end
$var wire 1 Y n11 $end
$var wire 1 Z n12 $end
$var wire 1 [ n13 $end
$var wire 1 \ n14 $end
$var wire 1 ] n15 $end
$var wire 1 ^ n16 $end
$var wire 1 _ n17 $end
$var wire 1 ` n18 $end
$var wire 1 a n19 $end
$var wire 1 b n20 $end
$var wire 1 c n21 $end
$var wire 1 d n22 $end
$var wire 1 e n23 $end
$var wire 1 f n24 $end
$var wire 1 g n25 $end
$var wire 1 h n26 $end
$var wire 1 i n27 $end
$var wire 1 j n28 $end
$var wire 1 k n29 $end
$var wire 1 l n30 $end
$var wire 1 m n31 $end
$var wire 1 n n32 $end
$var wire 1 o n33 $end
$var wire 1 p n34 $end
$var wire 1 q n35 $end
$var wire 1 r n36 $end
$var wire 1 s n37 $end
$var wire 1 t n38 $end
$var wire 1 u n39 $end
$var wire 1 v n40 $end
$var wire 1 w n41 $end
$var wire 1 x n42 $end
$var wire 1 y n43 $end
$var wire 1 z n44 $end
$var wire 1 { n45 $end
$var wire 1 | n46 $end
$var wire 1 } n47 $end
$var wire 1 ~ n48 $end
$var wire 1 !! n49 $end
$var wire 1 "! n50 $end
$var wire 1 #! n51 $end
$var wire 1 $! n52 $end
$var wire 1 %! n53 $end
$var wire 1 &! n54 $end
$var wire 1 '! n55 $end
$var wire 1 (! n56 $end
$var wire 1 )! n57 $end
$var wire 1 *! n58 $end
$var wire 1 +! n59 $end
$var wire 1 ,! n60 $end
$var wire 1 -! n61 $end
$var wire 1 .! n62 $end
$var wire 1 /! n63 $end
$var wire 1 0! n64 $end
$var wire 1 1! n65 $end
$var wire 1 2! n66 $end
$var wire 1 3! n67 $end
$var wire 1 4! n68 $end
$var wire 1 5! n69 $end
$var wire 1 6! n70 $end
$var wire 1 7! n71 $end
$var wire 1 8! n72 $end
$var wire 1 9! n73 $end
$var wire 1 :! n74 $end
$var wire 1 ;! n75 $end
$var wire 1 <! n76 $end
$var wire 1 =! state [2] $end
$var wire 1 >! state [1] $end
$var wire 1 ?! state [0] $end

$scope module state_reg[0] $end
$var wire 1 = CLK $end
$var wire 1 O D $end
$var wire 1 ?! Q $end
$var reg 1 @! NOTIFIER $end
$var wire 1 A! I0_CLOCK $end
$var wire 1 B! DS0000 $end
$var wire 1 C! P0002 $end
$upscope $end

$scope module state_reg[2] $end
$var wire 1 = CLK $end
$var wire 1 P D $end
$var wire 1 =! Q $end
$var reg 1 D! NOTIFIER $end
$var wire 1 E! I0_CLOCK $end
$var wire 1 F! DS0000 $end
$var wire 1 G! P0002 $end
$upscope $end

$scope module state_reg[1] $end
$var wire 1 = CLK $end
$var wire 1 C D $end
$var wire 1 >! Q $end
$var reg 1 H! NOTIFIER $end
$var wire 1 I! I0_CLOCK $end
$var wire 1 J! DS0000 $end
$var wire 1 K! P0002 $end
$upscope $end

$scope module counter_en_reg $end
$var wire 1 <! CLK $end
$var wire 1 R D $end
$var wire 1 5 Q $end
$var reg 1 L! NOTIFIER $end
$var wire 1 M! I0_CLOCK $end
$var wire 1 N! DS0000 $end
$var wire 1 O! P0002 $end
$upscope $end

$scope module shifter_op_reg[1] $end
$var wire 1 <! CLK $end
$var wire 1 L D $end
$var wire 1 7 Q $end
$var reg 1 P! NOTIFIER $end
$var wire 1 Q! I0_CLOCK $end
$var wire 1 R! DS0000 $end
$var wire 1 S! P0002 $end
$upscope $end

$scope module shifter_op_reg[0] $end
$var wire 1 <! CLK $end
$var wire 1 K D $end
$var wire 1 8 Q $end
$var reg 1 T! NOTIFIER $end
$var wire 1 U! I0_CLOCK $end
$var wire 1 V! DS0000 $end
$var wire 1 W! P0002 $end
$upscope $end

$scope module out_port_en_reg $end
$var wire 1 <! CLK $end
$var wire 1 I D $end
$var wire 1 6 Q $end
$var reg 1 X! NOTIFIER $end
$var wire 1 Y! I0_CLOCK $end
$var wire 1 Z! DS0000 $end
$var wire 1 [! P0002 $end
$upscope $end

$scope module pc_write_reg $end
$var wire 1 <! CLK $end
$var wire 1 D D $end
$var wire 1 ( Q $end
$var reg 1 \! NOTIFIER $end
$var wire 1 ]! I0_CLOCK $end
$var wire 1 ^! DS0000 $end
$var wire 1 _! P0002 $end
$upscope $end

$scope module pc_src_reg $end
$var wire 1 <! CLK $end
$var wire 1 W D $end
$var wire 1 ) Q $end
$var reg 1 `! NOTIFIER $end
$var wire 1 a! I0_CLOCK $end
$var wire 1 b! DS0000 $end
$var wire 1 c! P0002 $end
$upscope $end

$scope module ir_load_reg $end
$var wire 1 <! CLK $end
$var wire 1 S D $end
$var wire 1 * Q $end
$var reg 1 d! NOTIFIER $end
$var wire 1 e! I0_CLOCK $end
$var wire 1 f! DS0000 $end
$var wire 1 g! P0002 $end
$upscope $end

$scope module reg_write_reg $end
$var wire 1 <! CLK $end
$var wire 1 M D $end
$var wire 1 + Q $end
$var reg 1 h! NOTIFIER $end
$var wire 1 i! I0_CLOCK $end
$var wire 1 j! DS0000 $end
$var wire 1 k! P0002 $end
$upscope $end

$scope module alu_op_reg[3] $end
$var wire 1 <! CLK $end
$var wire 1 X D $end
$var wire 1 , Q $end
$var reg 1 l! NOTIFIER $end
$var wire 1 m! I0_CLOCK $end
$var wire 1 n! DS0000 $end
$var wire 1 o! P0002 $end
$upscope $end

$scope module alu_op_reg[2] $end
$var wire 1 <! CLK $end
$var wire 1 G D $end
$var wire 1 - Q $end
$var reg 1 p! NOTIFIER $end
$var wire 1 q! I0_CLOCK $end
$var wire 1 r! DS0000 $end
$var wire 1 s! P0002 $end
$upscope $end

$scope module alu_op_reg[1] $end
$var wire 1 <! CLK $end
$var wire 1 F D $end
$var wire 1 . Q $end
$var reg 1 t! NOTIFIER $end
$var wire 1 u! I0_CLOCK $end
$var wire 1 v! DS0000 $end
$var wire 1 w! P0002 $end
$upscope $end

$scope module alu_op_reg[0] $end
$var wire 1 <! CLK $end
$var wire 1 E D $end
$var wire 1 / Q $end
$var reg 1 x! NOTIFIER $end
$var wire 1 y! I0_CLOCK $end
$var wire 1 z! DS0000 $end
$var wire 1 {! P0002 $end
$upscope $end

$scope module alu_src_reg $end
$var wire 1 <! CLK $end
$var wire 1 H D $end
$var wire 1 0 Q $end
$var reg 1 |! NOTIFIER $end
$var wire 1 }! I0_CLOCK $end
$var wire 1 ~! DS0000 $end
$var wire 1 !" P0002 $end
$upscope $end

$scope module mem_read_reg $end
$var wire 1 <! CLK $end
$var wire 1 J D $end
$var wire 1 1 Q $end
$var reg 1 "" NOTIFIER $end
$var wire 1 #" I0_CLOCK $end
$var wire 1 $" DS0000 $end
$var wire 1 %" P0002 $end
$upscope $end

$scope module mem_write_reg $end
$var wire 1 <! CLK $end
$var wire 1 Q D $end
$var wire 1 2 Q $end
$var reg 1 &" NOTIFIER $end
$var wire 1 '" I0_CLOCK $end
$var wire 1 (" DS0000 $end
$var wire 1 )" P0002 $end
$upscope $end

$scope module mem_to_reg_reg $end
$var wire 1 <! CLK $end
$var wire 1 N D $end
$var wire 1 3 Q $end
$var reg 1 *" NOTIFIER $end
$var wire 1 +" I0_CLOCK $end
$var wire 1 ," DS0000 $end
$var wire 1 -" P0002 $end
$upscope $end

$scope module shifter_en_reg $end
$var wire 1 <! CLK $end
$var wire 1 R D $end
$var wire 1 4 Q $end
$var reg 1 ." NOTIFIER $end
$var wire 1 /" I0_CLOCK $end
$var wire 1 0" DS0000 $end
$var wire 1 1" P0002 $end
$upscope $end

$scope module U3 $end
$var wire 1 R A $end
$var wire 1 s B $end
$var wire 1 L Y $end
$upscope $end

$scope module U4 $end
$var wire 1 B A $end
$var wire 1 Q B $end
$var wire 1 I Y $end
$upscope $end

$scope module U5 $end
$var wire 1 5! A $end
$var wire 1 \ B $end
$var wire 1 C Y $end
$upscope $end

$scope module U6 $end
$var wire 1 h A $end
$var wire 1 O Y $end
$upscope $end

$scope module U7 $end
$var wire 1 ,! A $end
$var wire 1 P Y $end
$upscope $end

$scope module U8 $end
$var wire 1 | A $end
$var wire 1 Q Y $end
$upscope $end

$scope module U9 $end
$var wire 1 w A $end
$var wire 1 R Y $end
$upscope $end

$scope module U10 $end
$var wire 1 '! A $end
$var wire 1 S Y $end
$upscope $end

$scope module U11 $end
$var wire 1 r A $end
$var wire 1 T Y $end
$upscope $end

$scope module U12 $end
$var wire 1 =! A $end
$var wire 1 U Y $end
$upscope $end

$scope module U13 $end
$var wire 1 #! A $end
$var wire 1 V Y $end
$upscope $end

$scope module U14 $end
$var wire 1 (! A $end
$var wire 1 W Y $end
$upscope $end

$scope module U15 $end
$var wire 1 "! A $end
$var wire 1 X Y $end
$upscope $end

$scope module U16 $end
$var wire 1 9! A $end
$var wire 1 Y Y $end
$upscope $end

$scope module U17 $end
$var wire 1 >! A $end
$var wire 1 Z Y $end
$upscope $end

$scope module U18 $end
$var wire 1 ?! A $end
$var wire 1 [ Y $end
$upscope $end

$scope module U19 $end
$var wire 1 ? A $end
$var wire 1 \ Y $end
$upscope $end

$scope module U20 $end
$var wire 1 n A $end
$var wire 1 ] Y $end
$upscope $end

$scope module U21 $end
$var wire 1 4! A $end
$var wire 1 ^ Y $end
$upscope $end

$scope module U22 $end
$var wire 1 9 A $end
$var wire 1 _ Y $end
$upscope $end

$scope module U23 $end
$var wire 1 x A $end
$var wire 1 ` Y $end
$upscope $end

$scope module U24 $end
$var wire 1 k A $end
$var wire 1 a Y $end
$upscope $end

$scope module U25 $end
$var wire 1 : A $end
$var wire 1 b Y $end
$upscope $end

$scope module U26 $end
$var wire 1 ; A $end
$var wire 1 c Y $end
$upscope $end

$scope module U27 $end
$var wire 1 :! A $end
$var wire 1 d Y $end
$upscope $end

$scope module U28 $end
$var wire 1 < A $end
$var wire 1 e Y $end
$upscope $end

$scope module U29 $end
$var wire 1 @ A $end
$var wire 1 f Y $end
$upscope $end

$scope module U30 $end
$var wire 1 A A $end
$var wire 1 g Y $end
$upscope $end

$scope module U31 $end
$var wire 1 i A $end
$var wire 1 j B $end
$var wire 1 \ C $end
$var wire 1 h Y $end
$var wire 1 2" I0_out $end
$var wire 1 3" I1_out $end
$upscope $end

$scope module U32 $end
$var wire 1 k A $end
$var wire 1 l B $end
$var wire 1 m C $end
$var wire 1 j Y $end
$var wire 1 4" I0_out $end
$var wire 1 5" I1_out $end
$upscope $end

$scope module U33 $end
$var wire 1 ] A $end
$var wire 1 U B $end
$var wire 1 [ C $end
$var wire 1 m Y $end
$var wire 1 6" I0_out $end
$var wire 1 7" I1_out $end
$upscope $end

$scope module U34 $end
$var wire 1 [ A $end
$var wire 1 o B $end
$var wire 1 T C $end
$var wire 1 i Y $end
$var wire 1 8" I0_out $end
$var wire 1 9" I1_out $end
$upscope $end

$scope module U35 $end
$var wire 1 =! A $end
$var wire 1 g B $end
$var wire 1 o Y $end
$var wire 1 :" I0_out $end
$upscope $end

$scope module U36 $end
$var wire 1 p A $end
$var wire 1 q B $end
$var wire 1 N Y $end
$var wire 1 ;" I0_out $end
$upscope $end

$scope module U37 $end
$var wire 1 < A $end
$var wire 1 : B $end
$var wire 1 r C $end
$var wire 1 q Y $end
$var wire 1 <" I1_out $end
$upscope $end

$scope module U38 $end
$var wire 1 c A $end
$var wire 1 [ B $end
$var wire 1 9 C $end
$var wire 1 p Y $end
$var wire 1 =" I1_out $end
$upscope $end

$scope module U39 $end
$var wire 1 ?! A $end
$var wire 1 T B $end
$var wire 1 M Y $end
$var wire 1 >" I0_out $end
$upscope $end

$scope module U40 $end
$var wire 1 U A $end
$var wire 1 Z B $end
$var wire 1 r Y $end
$var wire 1 ?" I0_out $end
$upscope $end

$scope module U41 $end
$var wire 1 t A $end
$var wire 1 ` B $end
$var wire 1 u C $end
$var wire 1 s Y $end
$var wire 1 @" I0_out $end
$var wire 1 A" I1_out $end
$upscope $end

$scope module U42 $end
$var wire 1 u A $end
$var wire 1 v B $end
$var wire 1 w C $end
$var wire 1 K Y $end
$var wire 1 B" I0_out $end
$var wire 1 C" I1_out $end
$upscope $end

$scope module U43 $end
$var wire 1 ; A $end
$var wire 1 e B $end
$var wire 1 x C $end
$var wire 1 v Y $end
$var wire 1 D" I1_out $end
$upscope $end

$scope module U44 $end
$var wire 1 y A $end
$var wire 1 ?! B $end
$var wire 1 w Y $end
$var wire 1 E" I0_out $end
$upscope $end

$scope module U45 $end
$var wire 1 z A $end
$var wire 1 { B $end
$var wire 1 J Y $end
$var wire 1 F" I0_out $end
$upscope $end

$scope module U46 $end
$var wire 1 y A $end
$var wire 1 [ B $end
$var wire 1 { Y $end
$var wire 1 G" I0_out $end
$upscope $end

$scope module U47 $end
$var wire 1 z A $end
$var wire 1 [ B $end
$var wire 1 y C $end
$var wire 1 | Y $end
$var wire 1 H" I1_out $end
$upscope $end

$scope module U48 $end
$var wire 1 < A $end
$var wire 1 : B $end
$var wire 1 } C $end
$var wire 1 z Y $end
$var wire 1 I" I1_out $end
$upscope $end

$scope module U49 $end
$var wire 1 ; A $end
$var wire 1 _ B $end
$var wire 1 } Y $end
$var wire 1 J" I0_out $end
$upscope $end

$scope module U50 $end
$var wire 1 ~ A $end
$var wire 1 !! B $end
$var wire 1 "! C $end
$var wire 1 H Y $end
$var wire 1 K" I0_out $end
$var wire 1 L" I1_out $end
$upscope $end

$scope module U51 $end
$var wire 1 #! A $end
$var wire 1 : B $end
$var wire 1 !! Y $end
$var wire 1 M" I0_out $end
$upscope $end

$scope module U52 $end
$var wire 1 9 A $end
$var wire 1 t B $end
$var wire 1 ~ Y $end
$var wire 1 N" I0_out $end
$upscope $end

$scope module U53 $end
$var wire 1 d A $end
$var wire 1 $! B $end
$var wire 1 G Y $end
$var wire 1 O" I0_out $end
$upscope $end

$scope module U54 $end
$var wire 1 x A $end
$var wire 1 #! B $end
$var wire 1 $! Y $end
$var wire 1 P" I0_out $end
$upscope $end

$scope module U55 $end
$var wire 1 l A $end
$var wire 1 %! B $end
$var wire 1 "! C $end
$var wire 1 F Y $end
$var wire 1 Q" I0_out $end
$var wire 1 R" I1_out $end
$upscope $end

$scope module U56 $end
$var wire 1 < A $end
$var wire 1 #! B $end
$var wire 1 &! C $end
$var wire 1 "! Y $end
$var wire 1 S" I1_out $end
$upscope $end

$scope module U57 $end
$var wire 1 : A $end
$var wire 1 ^ B $end
$var wire 1 &! Y $end
$var wire 1 T" I0_out $end
$upscope $end

$scope module U58 $end
$var wire 1 ; A $end
$var wire 1 _ B $end
$var wire 1 %! Y $end
$var wire 1 U" I0_out $end
$upscope $end

$scope module U59 $end
$var wire 1 ^ A $end
$var wire 1 e B $end
$var wire 1 l C $end
$var wire 1 E Y $end
$var wire 1 V" I0_out $end
$var wire 1 W" I1_out $end
$upscope $end

$scope module U60 $end
$var wire 1 #! A $end
$var wire 1 b B $end
$var wire 1 l Y $end
$var wire 1 X" I0_out $end
$upscope $end

$scope module U61 $end
$var wire 1 '! A $end
$var wire 1 (! B $end
$var wire 1 D Y $end
$var wire 1 Y" I0_out $end
$upscope $end

$scope module U62 $end
$var wire 1 #! A $end
$var wire 1 9 B $end
$var wire 1 )! C $end
$var wire 1 (! Y $end
$var wire 1 Z" I1_out $end
$upscope $end

$scope module U63 $end
$var wire 1 *! A $end
$var wire 1 +! B $end
$var wire 1 : C $end
$var wire 1 )! Y $end
$var wire 1 [" I0_out $end
$var wire 1 \" I1_out $end
$upscope $end

$scope module U64 $end
$var wire 1 e A $end
$var wire 1 f B $end
$var wire 1 ; C $end
$var wire 1 +! Y $end
$var wire 1 ]" I1_out $end
$upscope $end

$scope module U65 $end
$var wire 1 < A $end
$var wire 1 c B $end
$var wire 1 @ C $end
$var wire 1 *! Y $end
$var wire 1 ^" I1_out $end
$upscope $end

$scope module U66 $end
$var wire 1 Z A $end
$var wire 1 U B $end
$var wire 1 ?! C $end
$var wire 1 '! Y $end
$var wire 1 _" I1_out $end
$upscope $end

$scope module U67 $end
$var wire 1 -! A $end
$var wire 1 .! B $end
$var wire 1 \ C $end
$var wire 1 ,! Y $end
$var wire 1 `" I0_out $end
$var wire 1 a" I1_out $end
$upscope $end

$scope module U68 $end
$var wire 1 U A $end
$var wire 1 [ B $end
$var wire 1 /! C $end
$var wire 1 .! Y $end
$var wire 1 b" I0_out $end
$var wire 1 c" I1_out $end
$upscope $end

$scope module U69 $end
$var wire 1 : A $end
$var wire 1 k B $end
$var wire 1 #! C $end
$var wire 1 /! Y $end
$var wire 1 d" I0_out $end
$var wire 1 e" I1_out $end
$upscope $end

$scope module U70 $end
$var wire 1 0! A $end
$var wire 1 Y B $end
$var wire 1 1! C $end
$var wire 1 -! Y $end
$var wire 1 f" I0_out $end
$var wire 1 g" I1_out $end
$upscope $end

$scope module U71 $end
$var wire 1 2! A $end
$var wire 1 < B $end
$var wire 1 3! C $end
$var wire 1 0! Y $end
$var wire 1 h" I0_out $end
$var wire 1 i" I1_out $end
$upscope $end

$scope module U72 $end
$var wire 1 ^ A $end
$var wire 1 b B $end
$var wire 1 2! Y $end
$var wire 1 j" I0_out $end
$upscope $end

$scope module U73 $end
$var wire 1 a A $end
$var wire 1 V B $end
$var wire 1 6! C $end
$var wire 1 5! Y $end
$var wire 1 k" I0_out $end
$var wire 1 l" I1_out $end
$upscope $end

$scope module U74 $end
$var wire 1 7! A $end
$var wire 1 [ B $end
$var wire 1 ?! C $end
$var wire 1 8! D $end
$var wire 1 6! Y $end
$var wire 1 m" I0_out $end
$var wire 1 n" I1_out $end
$var wire 1 o" I2_out $end
$upscope $end

$scope module U75 $end
$var wire 1 9! A $end
$var wire 1 y B $end
$var wire 1 >! C $end
$var wire 1 g D $end
$var wire 1 8! Y $end
$var wire 1 p" I0_out $end
$var wire 1 q" I1_out $end
$var wire 1 r" I2_out $end
$upscope $end

$scope module U76 $end
$var wire 1 Y A $end
$var wire 1 3! B $end
$var wire 1 1! C $end
$var wire 1 7! Y $end
$var wire 1 s" I0_out $end
$var wire 1 t" I1_out $end
$upscope $end

$scope module U77 $end
$var wire 1 y A $end
$var wire 1 n B $end
$var wire 1 1! Y $end
$var wire 1 u" I0_out $end
$upscope $end

$scope module U78 $end
$var wire 1 4! A $end
$var wire 1 e B $end
$var wire 1 : C $end
$var wire 1 n Y $end
$var wire 1 v" I1_out $end
$upscope $end

$scope module U79 $end
$var wire 1 _ A $end
$var wire 1 c B $end
$var wire 1 4! Y $end
$var wire 1 w" I0_out $end
$upscope $end

$scope module U80 $end
$var wire 1 U A $end
$var wire 1 >! B $end
$var wire 1 y Y $end
$var wire 1 x" I0_out $end
$upscope $end

$scope module U81 $end
$var wire 1 :! A $end
$var wire 1 ` B $end
$var wire 1 u C $end
$var wire 1 3! Y $end
$var wire 1 y" I0_out $end
$var wire 1 z" I1_out $end
$upscope $end

$scope module U82 $end
$var wire 1 9 A $end
$var wire 1 b B $end
$var wire 1 :! C $end
$var wire 1 u Y $end
$var wire 1 {" I1_out $end
$upscope $end

$scope module U83 $end
$var wire 1 b A $end
$var wire 1 9 B $end
$var wire 1 x Y $end
$var wire 1 |" I0_out $end
$upscope $end

$scope module U84 $end
$var wire 1 Y A $end
$var wire 1 [ B $end
$var wire 1 #! Y $end
$var wire 1 }" I0_out $end
$upscope $end

$scope module U85 $end
$var wire 1 Z A $end
$var wire 1 =! B $end
$var wire 1 9! Y $end
$var wire 1 ~" I0_out $end
$upscope $end

$scope module U86 $end
$var wire 1 t A $end
$var wire 1 d B $end
$var wire 1 9 C $end
$var wire 1 k Y $end
$var wire 1 !# I1_out $end
$upscope $end

$scope module U87 $end
$var wire 1 ; A $end
$var wire 1 < B $end
$var wire 1 :! Y $end
$var wire 1 "# I0_out $end
$upscope $end

$scope module U88 $end
$var wire 1 < A $end
$var wire 1 ; B $end
$var wire 1 t Y $end
$var wire 1 ## I0_out $end
$upscope $end

$scope module U89 $end
$var wire 1 > A $end
$var wire 1 ;! Y $end
$upscope $end

$scope module U90 $end
$var wire 1 ;! A $end
$var wire 1 <! Y $end
$upscope $end
$upscope $end
$upscope $end
$enddefinitions $end
#0
$dumpvars
0!
0"
1#
b0 $
0%
0&
0'
x@!
xD!
xH!
xL!
xP!
xT!
xX!
x\!
x`!
xd!
xh!
xl!
xp!
xt!
xx!
x|!
x""
x&"
x*"
x."
x(
x)
x*
x+
x/
x.
x-
x,
x0
x1
x2
x3
x4
x5
x6
x8
x7
xC
xD
xE
xF
xG
xH
xI
xJ
xK
xL
xM
xN
xO
xP
xQ
xR
xS
xT
xU
xV
xW
xX
xY
xZ
x[
x\
x]
x^
x_
x`
xa
xb
xc
xd
xe
xf
xg
xh
xi
xj
xk
xl
xm
xn
xo
xp
xq
xr
xs
xt
xu
xv
xw
xx
xy
xz
x{
x|
x}
x~
x!!
x"!
x#!
x$!
x%!
x&!
x'!
x(!
x)!
x*!
x+!
x,!
x-!
x.!
x/!
x0!
x1!
x2!
x3!
x4!
x5!
x6!
x7!
x8!
x9!
x:!
x;!
x<!
x?!
x>!
x=!
1A!
xB!
xC!
1E!
xF!
xG!
1I!
xJ!
xK!
xM!
xN!
xO!
xQ!
xR!
xS!
xU!
xV!
xW!
xY!
xZ!
x[!
x]!
x^!
x_!
xa!
xb!
xc!
xe!
xf!
xg!
xi!
xj!
xk!
xm!
xn!
xo!
xq!
xr!
xs!
xu!
xv!
xw!
xy!
xz!
x{!
x}!
x~!
x!"
x#"
x$"
x%"
x'"
x("
x)"
x+"
x,"
x-"
x/"
x0"
x1"
x2"
x3"
x4"
x5"
x6"
x7"
x8"
x9"
x:"
x;"
0<"
0="
x>"
x?"
x@"
xA"
xB"
xC"
0D"
xE"
xF"
xG"
xH"
0I"
xJ"
xK"
xL"
0M"
0N"
xO"
xP"
xQ"
xR"
0S"
xT"
0U"
xV"
xW"
xX"
xY"
0Z"
x["
x\"
0]"
0^"
x_"
x`"
xa"
xb"
xc"
xd"
xe"
xf"
xg"
0h"
xi"
xj"
xk"
xl"
xm"
xn"
xo"
xp"
xq"
xr"
xs"
xt"
xu"
0v"
xw"
xx"
xy"
xz"
0{"
x|"
x}"
x~"
0!#
0"#
0##
0B
0A
0@
0<
0;
0:
09
1?
0>
0=
$end
#8
1;!
1g
1q"
1f
1_
1w"
1J"
1b
1|"
1j"
1c
1e
0\
0a"
03"
#9
1~
1K"
1!!
1%!
1Q"
1t
1@"
#10
1p
1;"
1(!
1u
1A"
1k
1d"
14"
1n
1v
1B"
1C"
1+!
1:!
1y"
1z"
1q
1z
1F"
1"!
1R"
1L"
1*!
1["
1\"
#16
0<!
1/"
1+"
1'"
1#"
1}!
1y!
1u!
1q!
1m!
1i!
1e!
1a!
1]!
1Y!
1U!
1Q!
1M!
#18
0X
0H
0F
0d
03!
0i"
0]
0a
0s
0W
1h
1,!
02!
0}
04!
#20
0N
0I
#21
0)!
0K
#26
1^
1V"
1W"
1T"
0P
0O
#27
10!
1f"
#28
0x
0P"
#29
0C
#30
0J
#36
1`
0&!
#37
0E
#38
1$!
1O"
#39
0L
#48
0G
#1000
1!
1=
0I!
0E!
0A!
#2000
0!
0=
1I!
1E!
1A!
0J!
1K!
0F!
1G!
0B!
1C!
#2024
0?!
0n"
0_"
0E"
0=!
0:"
0>!
#2032
1Z
1~"
1?"
1U
1x"
1b"
16"
1[
1}"
18"
17"
#2033
1w
#2034
1o
1'!
1Y"
#2040
0m
05"
#2041
0D
0R
#2042
0S
0#!
0e"
0X"
0r
#2050
1T
1>"
19"
1V
1k"
1j
12"
#2052
1l
1/!
1c"
0y
0u"
0H"
0G"
09!
0p"
0r"
#2058
0i
#2060
1Y
1s"
0.!
0M
#2062
1{
1|
11!
1t"
1g"
#2064
18!
#2070
0-!
0`"
07!
0m"
0o"
0Q
#2083
16!
1l"
#2091
05!
#3000
1"
1>
#3009
0;!
#3017
1<!
0/"
0+"
0'"
0#"
0}!
0y!
0u!
0q!
0m!
0i!
0e!
0a!
0]!
0Y!
0U!
0Q!
0M!
#4000
0#
0"
0?
0>
#4008
1;!
1\
13"
#4016
0h
0<!
1/"
1+"
1'"
1#"
1}!
1y!
1u!
1q!
1m!
1i!
1e!
1a!
1]!
1Y!
1U!
1Q!
1M!
00"
11"
0,"
1-"
0("
1)"
0$"
1%"
0~!
1!"
0z!
1{!
0v!
1w!
0r!
1s!
0n!
1o!
0j!
1k!
0f!
1g!
0b!
1c!
0^!
1_!
0Z!
1[!
0V!
1W!
0R!
1S!
0N!
1O!
#4024
1O
#4040
05
07
08
06
0(
0)
0*
0+
0,
0-
0.
0/
00
01
02
03
04
#5000
1!
1=
0I!
0E!
0A!
#6000
0!
0=
1I!
1E!
1A!
1B!
0C!
#6027
1?!
1n"
1o"
1_"
#6034
0'!
0Y"
#6035
0[
07"
#6037
06!
0l"
#6042
1S
#6044
1D
#6045
1m
15"
#6047
15!
#6053
0j
02"
03"
#6064
1h
1C
#6072
0O
#7000
1"
1>
#7009
0;!
#7017
1<!
0/"
0+"
0'"
0#"
0}!
0y!
0u!
0q!
0m!
0i!
0e!
0a!
0]!
0Y!
0U!
0Q!
0M!
#8000
0"
0>
#8008
1;!
#8016
0<!
1/"
1+"
1'"
1#"
1}!
1y!
1u!
1q!
1m!
1i!
1e!
1a!
1]!
1Y!
1U!
1Q!
1M!
1f!
0g!
1^!
0_!
#8043
1(
1*
#9000
1!
1=
0I!
0E!
0A!
#10000
0!
0=
1I!
1E!
1A!
1J!
0K!
0B!
1C!
#10024
0?!
0n"
0o"
0_"
#10027
1>!
#10032
1[
17"
#10034
1'!
1Y"
#10035
0Z
0~"
16!
1l"
#10040
0m
05"
#10041
0D
#10042
0S
#10043
05!
#10045
19!
1p"
1r"
#10050
1j
12"
13"
#10053
0Y
0s"
0t"
#10057
08!
#10059
0h
#10063
0C
#10065
17!
1m"
1o"
#10067
1O
#10078
06!
0l"
#10088
15!
#10105
1C
#11000
1"
1>
#11009
0;!
#11017
1<!
0/"
0+"
0'"
0#"
0}!
0y!
0u!
0q!
0m!
0i!
0e!
0a!
0]!
0Y!
0U!
0Q!
0M!
#12000
0"
0>
#12008
1;!
#12016
0<!
1/"
1+"
1'"
1#"
1}!
1y!
1u!
1q!
1m!
1i!
1e!
1a!
1]!
1Y!
1U!
1Q!
1M!
0f!
1g!
0^!
1_!
#12040
0(
0*
#13000
1!
1=
0I!
0E!
0A!
#14000
0!
0=
1I!
1E!
1A!
1B!
0C!
#14027
1?!
#14035
0[
0}"
0m"
0o"
07"
#14045
1m
15"
1#!
1e"
1X"
#14047
16!
1l"
#14052
0l
#14053
0V
0k"
0l"
0/!
0c"
0j
02"
03"
#14063
1.!
1`"
1a"
#14064
1h
#14072
0O
0,!
#14080
1P
#15000
1"
1>
#15009
0;!
#15017
1<!
0/"
0+"
0'"
0#"
0}!
0y!
0u!
0q!
0m!
0i!
0e!
0a!
0]!
0Y!
0U!
0Q!
0M!
#16000
0"
0>
#16008
1;!
#16016
0<!
1/"
1+"
1'"
1#"
1}!
1y!
1u!
1q!
1m!
1i!
1e!
1a!
1]!
1Y!
1U!
1Q!
1M!
#17000
1!
1=
0I!
0E!
0A!
#18000
0!
0=
1I!
1E!
1A!
1F!
0G!
0B!
1C!
#18024
0?!
#18027
1=!
1~"
1:"
#18032
1[
1}"
1m"
1o"
17"
#18034
0o
#18035
0U
0?"
06"
07"
#18037
09!
0p"
0r"
#18042
0#!
0e"
0X"
