testbenches/Post-Synthesis/top_tb.log
Reading pref.tcl

# 2023.2

# vsim -debugDB -voptargs=""+acc"" -c top_tb -do "run -all; quit" 
# Start time: 17:08:05 on Apr 15,2026
# ** Note: (vsim-3813) Design is being optimized due to module recompilation...
# ** Note: (vsim-8611) Generating debug db.
# ** Warning: (vopt-10587) Some optimizations are turned off because the +acc switch is in effect. This will cause your simulation to run slowly. Please use -access/-debug to maintain needed visibility.
# ** Note: (vsim-12126) Error and warning message counts have been restored: Errors=0, Warnings=1.
# //  Questa Sim-64
# //  Version 2023.2 linux_x86_64 Apr 11 2023
# //
# //  Copyright 1991-2023 Mentor Graphics Corporation
# //  All Rights Reserved.
# //
# //  QuestaSim and its associated documentation contain trade
# //  secrets and commercial or financial information that are the property of
# //  Mentor Graphics Corporation and are privileged, confidential,
# //  and exempt from disclosure under the Freedom of Information Act,
# //  5 U.S.C. Section 552. Furthermore, this information
# //  is prohibited from disclosure under the Trade Secrets Act,
# //  18 U.S.C. Section 1905.
# //
# Loading work.top_tb(fast)
# Loading work.top(fast)
# Loading work.OR2X1(fast)
# Loading work.XOR2X1(fast)
# Loading work.NAND3X1(fast)
# Loading work.AOI22X1(fast)
# Loading work.OAI21X1(fast)
# Loading work.NOR2X1(fast)
# Loading work.NOR3X1(fast)
# Loading work.AND2X2(fast)
# Loading work.NAND2X1(fast)
# Loading work.XNOR2X1(fast)
# Loading work.AOI21X1(fast)
# Loading work.DFFNEGX1(fast)
# Loading work.OAI22X1(fast)
# Loading work.DFFPOSX1(fast)
# Loading work.FAX1(fast)
# Loading work.HAX1(fast)
# Loading work.OR2X2(fast)
# Loading work.INVX1(fast)
# Loading work.INVX2(fast)
# Loading work.BUFX2(fast)
# Loading work.MUX2X1(fast)
# ** Note: (vsim-8900) Creating design debug database vsim.dbg.
# run -all
# Assembler Check: instr[0]=1100001000000101, instr[1]=1011010000000011, instr[2]=0000011001010000
#                                                                TABLE OF RESULTS                                                                
#  --------------------------------------------------------------------------------------------------------------------------------------------- 
# | Cycle |   PC   | Opcode |   R1   |   R2   |   R3   |   R4   |   R5   |   R6   |   R7   | RAM[0] | RAM[1] | RAM[2] | out_port |    Comment   |
#  --------------------------------------------------------------------------------------------------------------------------------------------- 
# |    1  | 0xxxxx |  0x0x  | 0xxxxx | 0xxxxx | 0xxxxx | 0xxxxx | 0xxxxx | 0xxxxx | 0xxxxx | 0xxxxx | 0xxxxx | 0xxxxx |  0xxxxx  |   reset = 1  |
# |    2  | 0x0000 |  0x00  | 0x0000 | 0x0000 | 0x0000 | 0x0000 | 0x0000 | 0x0000 | 0x0000 | 0x0000 | 0x0000 | 0x0000 |  0x0000  |   reset = 1  |
# |    3  | 0x0000 |  0x00  | 0x0000 | 0x0000 | 0x0000 | 0x0000 | 0x0000 | 0x0000 | 0x0000 | 0x0000 | 0x0000 | 0x0000 |  0x0000  |   reset = 0  |
# |    4  | 0x0000 |  0x00  | 0x0000 | 0x0000 | 0x0000 | 0x0000 | 0x0000 | 0x0000 | 0x0000 | 0x0000 | 0x0000 | 0x0000 |  0x0000  |              |
# |    5  | 0x0000 |  0x00  | 0x0000 | 0x0000 | 0x0000 | 0x0000 | 0x0000 | 0x0000 | 0x0000 | 0x0000 | 0x0000 | 0x0000 |  0x0000  |              |
# |    6  | 0x0000 |  0x00  | 0x0000 | 0x0000 | 0x0000 | 0x0000 | 0x0000 | 0x0000 | 0x0000 | 0x0000 | 0x0000 | 0x0000 |  0x0000  |              |
# |    7  | 0x0000 |  0x00  | 0x0000 | 0x0000 | 0x0000 | 0x0000 | 0x0000 | 0x0000 | 0x0000 | 0x0000 | 0x0000 | 0x0000 |  0x0000  |              |
# |    8  | 0x0000 |  0x00  | 0x0000 | 0x0000 | 0x0000 | 0x0000 | 0x0000 | 0x0000 | 0x0000 | 0x0000 | 0x0000 | 0x0000 |  0x0000  |              |
# |    9  | 0x0000 |  0x00  | 0x0000 | 0x0000 | 0x0000 | 0x0000 | 0x0000 | 0x0000 | 0x0000 | 0x0000 | 0x0000 | 0x0000 |  0x0000  |              |
# |   10  | 0x0000 |  0x00  | 0x0000 | 0x0000 | 0x0000 | 0x0000 | 0x0000 | 0x0000 | 0x0000 | 0x0000 | 0x0000 | 0x0000 |  0x0000  |              |
# |   11  | 0x0000 |  0x00  | 0x0000 | 0x0000 | 0x0000 | 0x0000 | 0x0000 | 0x0000 | 0x0000 | 0x0000 | 0x0000 | 0x0000 |  0x0000  |              |
# |   12  | 0x0000 |  0x00  | 0x0000 | 0x0000 | 0x0000 | 0x0000 | 0x0000 | 0x0000 | 0x0000 | 0x0000 | 0x0000 | 0x0000 |  0x0000  |              |
# |   13  | 0x0000 |  0x00  | 0x0000 | 0x0000 | 0x0000 | 0x0000 | 0x0000 | 0x0000 | 0x0000 | 0x0000 | 0x0000 | 0x0000 |  0x0000  |              |
# |   14  | 0x0000 |  0x00  | 0x0000 | 0x0000 | 0x0000 | 0x0000 | 0x0000 | 0x0000 | 0x0000 | 0x0000 | 0x0000 | 0x0000 |  0x0000  |              |
# |   15  | 0x0000 |  0x00  | 0x0000 | 0x0000 | 0x0000 | 0x0000 | 0x0000 | 0x0000 | 0x0000 | 0x0000 | 0x0000 | 0x0000 |  0x0000  |              |
# |   16  | 0x0000 |  0x00  | 0x0000 | 0x0000 | 0x0000 | 0x0000 | 0x0000 | 0x0000 | 0x0000 | 0x0000 | 0x0000 | 0x0000 |  0x0000  |              |
# |   17  | 0x0000 |  0x00  | 0x0000 | 0x0000 | 0x0000 | 0x0000 | 0x0000 | 0x0000 | 0x0000 | 0x0000 | 0x0000 | 0x0000 |  0x0000  |              |
# |   18  | 0x0000 |  0x00  | 0x0000 | 0x0000 | 0x0000 | 0x0000 | 0x0000 | 0x0000 | 0x0000 | 0x0000 | 0x0000 | 0x0000 |  0x0000  |              |
# |   19  | 0x0000 |  0x00  | 0x0000 | 0x0000 | 0x0000 | 0x0000 | 0x0000 | 0x0000 | 0x0000 | 0x0000 | 0x0000 | 0x0000 |  0x0000  |              |
# |   20  | 0x0000 |  0x00  | 0x0000 | 0x0000 | 0x0000 | 0x0000 | 0x0000 | 0x0000 | 0x0000 | 0x0000 | 0x0000 | 0x0000 |  0x0000  |              |
# |   21  | 0x0000 |  0x00  | 0x0000 | 0x0000 | 0x0000 | 0x0000 | 0x0000 | 0x0000 | 0x0000 | 0x0000 | 0x0000 | 0x0000 |  0x0000  |              |
# |   22  | 0x0000 |  0x00  | 0x0000 | 0x0000 | 0x0000 | 0x0000 | 0x0000 | 0x0000 | 0x0000 | 0x0000 | 0x0000 | 0x0000 |  0x0000  |              |
# |   23  | 0x0000 |  0x00  | 0x0000 | 0x0000 | 0x0000 | 0x0000 | 0x0000 | 0x0000 | 0x0000 | 0x0000 | 0x0000 | 0x0000 |  0x0000  |              |
# |   24  | 0x0000 |  0x00  | 0x0000 | 0x0000 | 0x0000 | 0x0000 | 0x0000 | 0x0000 | 0x0000 | 0x0000 | 0x0000 | 0x0000 |  0x0000  |              |
# |   25  | 0x0000 |  0x00  | 0x0000 | 0x0000 | 0x0000 | 0x0000 | 0x0000 | 0x0000 | 0x0000 | 0x0000 | 0x0000 | 0x0000 |  0x0000  |              |
# |   26  | 0x0000 |  0x00  | 0x0000 | 0x0000 | 0x0000 | 0x0000 | 0x0000 | 0x0000 | 0x0000 | 0x0000 | 0x0000 | 0x0000 |  0x0000  |              |
# |   27  | 0x0000 |  0x00  | 0x0000 | 0x0000 | 0x0000 | 0x0000 | 0x0000 | 0x0000 | 0x0000 | 0x0000 | 0x0000 | 0x0000 |  0x0000  |              |
# |   28  | 0x0000 |  0x00  | 0x0000 | 0x0000 | 0x0000 | 0x0000 | 0x0000 | 0x0000 | 0x0000 | 0x0000 | 0x0000 | 0x0000 |  0x0000  |              |
# |   29  | 0x0000 |  0x00  | 0x0000 | 0x0000 | 0x0000 | 0x0000 | 0x0000 | 0x0000 | 0x0000 | 0x0000 | 0x0000 | 0x0000 |  0x0000  |              |
# |   30  | 0x0000 |  0x00  | 0x0000 | 0x0000 | 0x0000 | 0x0000 | 0x0000 | 0x0000 | 0x0000 | 0x0000 | 0x0000 | 0x0000 |  0x0000  |              |
# |   31  | 0x0000 |  0x00  | 0x0000 | 0x0000 | 0x0000 | 0x0000 | 0x0000 | 0x0000 | 0x0000 | 0x0000 | 0x0000 | 0x0000 |  0x0000  |              |
# |   32  | 0x0000 |  0x00  | 0x0000 | 0x0000 | 0x0000 | 0x0000 | 0x0000 | 0x0000 | 0x0000 | 0x0000 | 0x0000 | 0x0000 |  0x0000  |              |
# |   32  | 0x0000 |  0x00  | 0x0000 | 0x0000 | 0x0000 | 0x0000 | 0x0000 | 0x0000 | 0x0000 | 0x0000 | 0x0000 | 0x0000 |  0x0000  | ins_done = 1 |
# |   33  | 0x0000 |  0x00  | 0x0000 | 0x0000 | 0x0000 | 0x0000 | 0x0000 | 0x0000 | 0x0000 | 0x0000 | 0x0000 | 0x0000 |  0x0000  |              |
# |   34  | 0x0000 |  0x00  | 0x0000 | 0x0000 | 0x0000 | 0x0000 | 0x0000 | 0x0000 | 0x0000 | 0x0000 | 0x0000 | 0x0000 |  0x0000  |              |
#  --------------------------------------------------------------------------------------------------------------------------------------------- 
# |   35  | 0x0001 |  0x0c  | 0x0000 | 0x0000 | 0x0000 | 0x0000 | 0x0000 | 0x0000 | 0x0000 | 0x0000 | 0x0000 | 0x0000 |  0x0000  |              |
# |   36  | 0x0001 |  0x0c  | 0x0000 | 0x0000 | 0x0000 | 0x0000 | 0x0000 | 0x0000 | 0x0000 | 0x0000 | 0x0000 | 0x0000 |  0x0000  |              |
# |   37  | 0x0001 |  0x0c  | 0x0000 | 0x0000 | 0x0000 | 0x0000 | 0x0000 | 0x0000 | 0x0000 | 0x0000 | 0x0000 | 0x0000 |  0x0000  |              |
# |   38  | 0x0001 |  0x0c  | 0x0005 | 0x0000 | 0x0000 | 0x0000 | 0x0000 | 0x0000 | 0x0000 | 0x0000 | 0x0000 | 0x0000 |  0x0000  |              |
#  --------------------------------------------------------------------------------------------------------------------------------------------- 
# |   39  | 0x0002 |  0x0b  | 0x0005 | 0x0000 | 0x0000 | 0x0000 | 0x0000 | 0x0000 | 0x0000 | 0x0000 | 0x0000 | 0x0000 |  0x0000  |              |
# |   40  | 0x0002 |  0x0b  | 0x0005 | 0x0000 | 0x0000 | 0x0000 | 0x0000 | 0x0000 | 0x0000 | 0x0000 | 0x0000 | 0x0000 |  0x0000  |              |
# |   41  | 0x0002 |  0x0b  | 0x0005 | 0x0000 | 0x0000 | 0x0000 | 0x0000 | 0x0000 | 0x0000 | 0x0000 | 0x0000 | 0x0000 |  0x0000  |              |
# |   42  | 0x0002 |  0x0b  | 0x0005 | 0x0c00 | 0x0000 | 0x0000 | 0x0000 | 0x0000 | 0x0000 | 0x0000 | 0x0000 | 0x0000 |  0x0000  |              |
#  --------------------------------------------------------------------------------------------------------------------------------------------- 
# |   43  | 0x0003 |  0x00  | 0x0005 | 0x0c00 | 0x0000 | 0x0000 | 0x0000 | 0x0000 | 0x0000 | 0x0000 | 0x0000 | 0x0000 |  0x0000  |              |
# |   44  | 0x0003 |  0x00  | 0x0005 | 0x0c00 | 0x0000 | 0x0000 | 0x0000 | 0x0000 | 0x0000 | 0x0000 | 0x0000 | 0x0000 |  0x0000  |              |
# |   45  | 0x0003 |  0x00  | 0x0005 | 0x0c00 | 0x0000 | 0x0000 | 0x0000 | 0x0000 | 0x0000 | 0x0000 | 0x0000 | 0x0000 |  0x0000  |              |
# |   46  | 0x0003 |  0x00  | 0x0005 | 0x0c00 | 0x0c05 | 0x0000 | 0x0000 | 0x0000 | 0x0000 | 0x0000 | 0x0000 | 0x0000 |  0x0000  |              |
#  --------------------------------------------------------------------------------------------------------------------------------------------- 
# |   47  | 0x0004 |  0x0c  | 0x0005 | 0x0c00 | 0x0c05 | 0x0000 | 0x0000 | 0x0000 | 0x0000 | 0x0000 | 0x0000 | 0x0000 |  0x0000  |              |
# |   48  | 0x0004 |  0x0c  | 0x0005 | 0x0c00 | 0x0c05 | 0x0000 | 0x0000 | 0x0000 | 0x0000 | 0x0000 | 0x0000 | 0x0000 |  0x0000  |              |
# |   49  | 0x0004 |  0x0c  | 0x0005 | 0x0c00 | 0x0c05 | 0x0000 | 0x0000 | 0x0000 | 0x0000 | 0x0000 | 0x0000 | 0x0000 |  0x0000  |              |
# |   50  | 0x0004 |  0x0c  | 0x0005 | 0x0c00 | 0x0c05 | 0xfffc | 0x0000 | 0x0000 | 0x0000 | 0x0000 | 0x0000 | 0x0000 |  0x0000  |              |
#  --------------------------------------------------------------------------------------------------------------------------------------------- 
# |   51  | 0x0005 |  0x01  | 0x0005 | 0x0c00 | 0x0c05 | 0xfffc | 0x0000 | 0x0000 | 0x0000 | 0x0000 | 0x0000 | 0x0000 |  0x0000  |              |
# |   52  | 0x0005 |  0x01  | 0x0005 | 0x0c00 | 0x0c05 | 0xfffc | 0x0000 | 0x0000 | 0x0000 | 0x0000 | 0x0000 | 0x0000 |  0x0000  |              |
# |   53  | 0x0005 |  0x01  | 0x0005 | 0x0c00 | 0x0c05 | 0xfffc | 0x0000 | 0x0000 | 0x0000 | 0x0000 | 0x0000 | 0x0000 |  0x0000  |              |
# |   54  | 0x0005 |  0x01  | 0x0005 | 0x0c00 | 0x0c05 | 0xfffc | 0x0000 | 0x0000 | 0x0000 | 0x0000 | 0x0000 | 0x0000 |  0x0000  |              |
#  --------------------------------------------------------------------------------------------------------------------------------------------- 
# |   55  | 0x0006 |  0x02  | 0x0005 | 0x0c00 | 0x0c05 | 0xfffc | 0x0000 | 0x0000 | 0x0000 | 0x0000 | 0x0000 | 0x0000 |  0x0000  |              |
# |   56  | 0x0006 |  0x02  | 0x0005 | 0x0c00 | 0x0c05 | 0xfffc | 0x0000 | 0x0000 | 0x0000 | 0x0000 | 0x0000 | 0x0000 |  0x0000  |              |
# |   57  | 0x0006 |  0x02  | 0x0005 | 0x0c00 | 0x0c05 | 0xfffc | 0x0000 | 0x0000 | 0x0000 | 0x0000 | 0x0000 | 0x0000 |  0x0000  |              |
# |   58  | 0x0006 |  0x02  | 0x0005 | 0x0c00 | 0x0c05 | 0xfffc | 0x0000 | 0x0c04 | 0x0000 | 0x0000 | 0x0000 | 0x0000 |  0x0000  |              |
#  --------------------------------------------------------------------------------------------------------------------------------------------- 
# |   59  | 0x0007 |  0x03  | 0x0005 | 0x0c00 | 0x0c05 | 0xfffc | 0x0000 | 0x0c04 | 0x0000 | 0x0000 | 0x0000 | 0x0000 |  0x0000  |              |
# |   60  | 0x0007 |  0x03  | 0x0005 | 0x0c00 | 0x0c05 | 0xfffc | 0x0000 | 0x0c04 | 0x0000 | 0x0000 | 0x0000 | 0x0000 |  0x0000  |              |
# |   61  | 0x0007 |  0x03  | 0x0005 | 0x0c00 | 0x0c05 | 0xfffc | 0x0000 | 0x0c04 | 0x0000 | 0x0000 | 0x0000 | 0x0000 |  0x0000  |              |
# |   62  | 0x0007 |  0x03  | 0x0005 | 0x0c00 | 0x0c05 | 0xfffc | 0x0000 | 0x0c04 | 0xfffd | 0x0000 | 0x0000 | 0x0000 |  0x0000  |              |
#  --------------------------------------------------------------------------------------------------------------------------------------------- 
# |   63  | 0x0008 |  0x04  | 0x0005 | 0x0c00 | 0x0c05 | 0xfffc | 0x0000 | 0x0c04 | 0xfffd | 0x0000 | 0x0000 | 0x0000 |  0x0000  |              |
# |   64  | 0x0008 |  0x04  | 0x0005 | 0x0c00 | 0x0c05 | 0xfffc | 0x0000 | 0x0c04 | 0xfffd | 0x0000 | 0x0000 | 0x0000 |  0x0000  |              |
# |   65  | 0x0008 |  0x04  | 0x0005 | 0x0c00 | 0x0c05 | 0xfffc | 0x0000 | 0x0c04 | 0xfffd | 0x0000 | 0x0000 | 0x0000 |  0x0000  |              |
# |   66  | 0x0008 |  0x04  | 0x0005 | 0x0c00 | 0xf3fd | 0xfffc | 0x0000 | 0x0c04 | 0xfffd | 0x0000 | 0x0000 | 0x0000 |  0x0000  |              |
#  --------------------------------------------------------------------------------------------------------------------------------------------- 
# |   67  | 0x0009 |  0x0e  | 0x0005 | 0x0c00 | 0xf3fd | 0xfffc | 0x0000 | 0x0c04 | 0xfffd | 0x0000 | 0x0000 | 0x0000 |  0x0000  |              |
# |   68  | 0x0009 |  0x0e  | 0x0005 | 0x0c00 | 0xf3fd | 0xfffc | 0x0000 | 0x0c04 | 0xfffd | 0x0000 | 0x0000 | 0x0000 |  0x0000  |              |
# |   69  | 0x0009 |  0x0e  | 0x0005 | 0x0c00 | 0xf3fd | 0xfffc | 0x0000 | 0x0c04 | 0xfffd | 0x0000 | 0x0000 | 0x0000 |  0x0000  |              |
# |   70  | 0x0009 |  0x0e  | 0x0005 | 0x0c00 | 0xf3fd | 0xfffc | 0x0000 | 0x0c04 | 0xfffd | 0x0000 | 0x0000 | 0x0005 |  0x0000  |              |
#  --------------------------------------------------------------------------------------------------------------------------------------------- 
# |   71  | 0x000a |  0x0d  | 0x0005 | 0x0c00 | 0xf3fd | 0xfffc | 0x0000 | 0x0c04 | 0xfffd | 0x0000 | 0x0000 | 0x0005 |  0x0000  |              |
# |   72  | 0x000a |  0x0d  | 0x0005 | 0x0c00 | 0xf3fd | 0xfffc | 0x0000 | 0x0c04 | 0xfffd | 0x0000 | 0x0000 | 0x0005 |  0x0000  |              |
# |   73  | 0x000a |  0x0d  | 0x0005 | 0x0c00 | 0xf3fd | 0xfffc | 0x0000 | 0x0c04 | 0xfffd | 0x0000 | 0x0000 | 0x0005 |  0x0000  |              |
# |   74  | 0x000a |  0x0d  | 0x0005 | 0x0c00 | 0xf3fd | 0xfffc | 0x0000 | 0x0c04 | 0xfffd | 0x0000 | 0x0000 | 0x0005 |  0x0000  |              |
# |   75  | 0x000a |  0x0d  | 0x0005 | 0x0005 | 0xf3fd | 0xfffc | 0x0000 | 0x0c04 | 0xfffd | 0x0000 | 0x0000 | 0x0005 |  0x0000  |              |
#  --------------------------------------------------------------------------------------------------------------------------------------------- 
# |   76  | 0x000b |  0x0c  | 0x0005 | 0x0005 | 0xf3fd | 0xfffc | 0x0000 | 0x0c04 | 0xfffd | 0x0000 | 0x0000 | 0x0005 |  0x0000  |              |
# |   77  | 0x000b |  0x0c  | 0x0005 | 0x0005 | 0xf3fd | 0xfffc | 0x0000 | 0x0c04 | 0xfffd | 0x0000 | 0x0000 | 0x0005 |  0x0000  |              |
# |   78  | 0x000b |  0x0c  | 0x0005 | 0x0005 | 0xf3fd | 0xfffc | 0x0000 | 0x0c04 | 0xfffd | 0x0000 | 0x0000 | 0x0005 |  0x0000  |              |
# |   79  | 0x000b |  0x0c  | 0x0003 | 0x0005 | 0xf3fd | 0xfffc | 0x0000 | 0x0c04 | 0xfffd | 0x0000 | 0x0000 | 0x0005 |  0x0000  |              |
#  --------------------------------------------------------------------------------------------------------------------------------------------- 
# |   80  | 0x000c |  0x0c  | 0x0003 | 0x0005 | 0xf3fd | 0xfffc | 0x0000 | 0x0c04 | 0xfffd | 0x0000 | 0x0000 | 0x0005 |  0x0000  |              |
# |   81  | 0x000c |  0x0c  | 0x0003 | 0x0005 | 0xf3fd | 0xfffc | 0x0000 | 0x0c04 | 0xfffd | 0x0000 | 0x0000 | 0x0005 |  0x0000  |              |
# |   82  | 0x000c |  0x0c  | 0x0003 | 0x0005 | 0xf3fd | 0xfffc | 0x0000 | 0x0c04 | 0xfffd | 0x0000 | 0x0000 | 0x0005 |  0x0000  |              |
# |   83  | 0x000c |  0x0c  | 0x0003 | 0x0002 | 0xf3fd | 0xfffc | 0x0000 | 0x0c04 | 0xfffd | 0x0000 | 0x0000 | 0x0005 |  0x0000  |              |
#  --------------------------------------------------------------------------------------------------------------------------------------------- 
# |   84  | 0x000d |  0x00  | 0x0003 | 0x0002 | 0xf3fd | 0xfffc | 0x0000 | 0x0c04 | 0xfffd | 0x0000 | 0x0000 | 0x0005 |  0x0000  |              |
# |   85  | 0x000d |  0x00  | 0x0003 | 0x0002 | 0xf3fd | 0xfffc | 0x0000 | 0x0c04 | 0xfffd | 0x0000 | 0x0000 | 0x0005 |  0x0000  |              |
# |   86  | 0x000d |  0x00  | 0x0003 | 0x0002 | 0xf3fd | 0xfffc | 0x0000 | 0x0c04 | 0xfffd | 0x0000 | 0x0000 | 0x0005 |  0x0000  |              |
# |   87  | 0x000d |  0x00  | 0x0003 | 0x0002 | 0x0000 | 0xfffc | 0x0000 | 0x0c04 | 0xfffd | 0x0000 | 0x0000 | 0x0005 |  0x0000  |              |
#  --------------------------------------------------------------------------------------------------------------------------------------------- 
# |   88  | 0x000e |  0x0c  | 0x0003 | 0x0002 | 0x0000 | 0xfffc | 0x0000 | 0x0c04 | 0xfffd | 0x0000 | 0x0000 | 0x0005 |  0x0000  |              |
# |   89  | 0x000e |  0x0c  | 0x0003 | 0x0002 | 0x0000 | 0xfffc | 0x0000 | 0x0c04 | 0xfffd | 0x0000 | 0x0000 | 0x0005 |  0x0000  |              |
# |   90  | 0x000e |  0x0c  | 0x0003 | 0x0002 | 0x0000 | 0xfffc | 0x0000 | 0x0c04 | 0xfffd | 0x0000 | 0x0000 | 0x0005 |  0x0000  |              |
# |   91  | 0x000e |  0x0c  | 0x0003 | 0x0002 | 0x0000 | 0xfffc | 0x0001 | 0x0c04 | 0xfffd | 0x0000 | 0x0000 | 0x0005 |  0x0000  |              |
#  --------------------------------------------------------------------------------------------------------------------------------------------- 
# |   92  | 0x000f |  0x09  | 0x0003 | 0x0002 | 0x0000 | 0xfffc | 0x0001 | 0x0c04 | 0xfffd | 0x0000 | 0x0000 | 0x0005 |  0x0000  |              |
# |   93  | 0x000f |  0x09  | 0x0003 | 0x0002 | 0x0000 | 0xfffc | 0x0001 | 0x0c04 | 0xfffd | 0x0000 | 0x0000 | 0x0005 |  0x0000  |              |
# |   94  | 0x000f |  0x09  | 0x0003 | 0x0002 | 0x0000 | 0xfffc | 0x0001 | 0x0c04 | 0xfffd | 0x0000 | 0x0000 | 0x0005 |  0x0000  |              |
# |   95  | 0x000f |  0x09  | 0x0003 | 0x0002 | 0x0000 | 0xfffc | 0x0001 | 0x0c04 | 0xfffd | 0x0000 | 0x0000 | 0x0005 |  0x0000  |              |
#  --------------------------------------------------------------------------------------------------------------------------------------------- 
# |   96  | 0x0010 |  0x0e  | 0x0003 | 0x0002 | 0x0000 | 0xfffc | 0x0001 | 0x0c04 | 0xfffd | 0x0000 | 0x0000 | 0x0005 |  0x0000  |              |
# |   97  | 0x0010 |  0x0e  | 0x0003 | 0x0002 | 0x0000 | 0xfffc | 0x0001 | 0x0c04 | 0xfffd | 0x0000 | 0x0000 | 0x0005 |  0x0000  |              |
# |   98  | 0x0010 |  0x0e  | 0x0003 | 0x0002 | 0x0000 | 0xfffc | 0x0001 | 0x0c04 | 0xfffd | 0x0000 | 0x0000 | 0x0005 |  0x0000  |              |
# |   99  | 0x0010 |  0x0e  | 0x0003 | 0x0002 | 0x0000 | 0xfffc | 0x0001 | 0x0c04 | 0xfffd | 0xfffd | 0x0000 | 0x0005 |  0x0000  |              |
#  --------------------------------------------------------------------------------------------------------------------------------------------- 
# |  100  | 0x0011 |  0x0a  | 0x0003 | 0x0002 | 0x0000 | 0xfffc | 0x0001 | 0x0c04 | 0xfffd | 0xfffd | 0x0000 | 0x0005 |  0x0000  |              |
# |  101  | 0x0011 |  0x0a  | 0x0003 | 0x0002 | 0x0000 | 0xfffc | 0x0001 | 0x0c04 | 0xfffd | 0xfffd | 0x0000 | 0x0005 |  0x0000  |              |
# |  102  | 0x0011 |  0x0a  | 0x0003 | 0x0002 | 0x0000 | 0xfffc | 0x0001 | 0x0c04 | 0xfffd | 0xfffd | 0x0000 | 0x0005 |  0x0000  |              |
#  --------------------------------------------------------------------------------------------------------------------------------------------- 
# |  103  | 0x000c |  0x0a  | 0x0003 | 0x0002 | 0x0000 | 0xfffc | 0x0001 | 0x0c04 | 0xfffd | 0xfffd | 0x0000 | 0x0005 |  0x0000  |              |
#  --------------------------------------------------------------------------------------------------------------------------------------------- 
# |  104  | 0x000d |  0x00  | 0x0003 | 0x0002 | 0x0000 | 0xfffc | 0x0001 | 0x0c04 | 0xfffd | 0xfffd | 0x0000 | 0x0005 |  0x0000  |              |
# |  105  | 0x000d |  0x00  | 0x0003 | 0x0002 | 0x0000 | 0xfffc | 0x0001 | 0x0c04 | 0xfffd | 0xfffd | 0x0000 | 0x0005 |  0x0000  |              |
# |  106  | 0x000d |  0x00  | 0x0003 | 0x0002 | 0x0000 | 0xfffc | 0x0001 | 0x0c04 | 0xfffd | 0xfffd | 0x0000 | 0x0005 |  0x0000  |              |
# |  107  | 0x000d |  0x00  | 0x0003 | 0x0002 | 0x0001 | 0xfffc | 0x0001 | 0x0c04 | 0xfffd | 0xfffd | 0x0000 | 0x0005 |  0x0000  |              |
#  --------------------------------------------------------------------------------------------------------------------------------------------- 
# |  108  | 0x000e |  0x0c  | 0x0003 | 0x0002 | 0x0001 | 0xfffc | 0x0001 | 0x0c04 | 0xfffd | 0xfffd | 0x0000 | 0x0005 |  0x0000  |              |
# |  109  | 0x000e |  0x0c  | 0x0003 | 0x0002 | 0x0001 | 0xfffc | 0x0001 | 0x0c04 | 0xfffd | 0xfffd | 0x0000 | 0x0005 |  0x0000  |              |
# |  110  | 0x000e |  0x0c  | 0x0003 | 0x0002 | 0x0001 | 0xfffc | 0x0001 | 0x0c04 | 0xfffd | 0xfffd | 0x0000 | 0x0005 |  0x0000  |              |
# |  111  | 0x000e |  0x0c  | 0x0003 | 0x0002 | 0x0001 | 0xfffc | 0x0002 | 0x0c04 | 0xfffd | 0xfffd | 0x0000 | 0x0005 |  0x0000  |              |
#  --------------------------------------------------------------------------------------------------------------------------------------------- 
# |  112  | 0x000f |  0x09  | 0x0003 | 0x0002 | 0x0001 | 0xfffc | 0x0002 | 0x0c04 | 0xfffd | 0xfffd | 0x0000 | 0x0005 |  0x0000  |              |
# |  113  | 0x000f |  0x09  | 0x0003 | 0x0002 | 0x0001 | 0xfffc | 0x0002 | 0x0c04 | 0xfffd | 0xfffd | 0x0000 | 0x0005 |  0x0000  |              |
# |  114  | 0x000f |  0x09  | 0x0003 | 0x0002 | 0x0001 | 0xfffc | 0x0002 | 0x0c04 | 0xfffd | 0xfffd | 0x0000 | 0x0005 |  0x0000  |              |
# |  115  | 0x000f |  0x09  | 0x0003 | 0x0002 | 0x0001 | 0xfffc | 0x0002 | 0x0c04 | 0xfffd | 0xfffd | 0x0000 | 0x0005 |  0x0000  |              |
#  --------------------------------------------------------------------------------------------------------------------------------------------- 
# |  116  | 0x0010 |  0x0e  | 0x0003 | 0x0002 | 0x0001 | 0xfffc | 0x0002 | 0x0c04 | 0xfffd | 0xfffd | 0x0000 | 0x0005 |  0x0000  |              |
# |  117  | 0x0010 |  0x0e  | 0x0003 | 0x0002 | 0x0001 | 0xfffc | 0x0002 | 0x0c04 | 0xfffd | 0xfffd | 0x0000 | 0x0005 |  0x0000  |              |
# |  118  | 0x0010 |  0x0e  | 0x0003 | 0x0002 | 0x0001 | 0xfffc | 0x0002 | 0x0c04 | 0xfffd | 0xfffd | 0x0000 | 0x0005 |  0x0000  |              |
# |  119  | 0x0010 |  0x0e  | 0x0003 | 0x0002 | 0x0001 | 0xfffc | 0x0002 | 0x0c04 | 0xfffd | 0xfffd | 0xfffd | 0x0005 |  0x0000  |              |
#  --------------------------------------------------------------------------------------------------------------------------------------------- 
# |  120  | 0x0011 |  0x0a  | 0x0003 | 0x0002 | 0x0001 | 0xfffc | 0x0002 | 0x0c04 | 0xfffd | 0xfffd | 0xfffd | 0x0005 |  0x0000  |              |
# |  121  | 0x0011 |  0x0a  | 0x0003 | 0x0002 | 0x0001 | 0xfffc | 0x0002 | 0x0c04 | 0xfffd | 0xfffd | 0xfffd | 0x0005 |  0x0000  |              |
# |  122  | 0x0011 |  0x0a  | 0x0003 | 0x0002 | 0x0001 | 0xfffc | 0x0002 | 0x0c04 | 0xfffd | 0xfffd | 0xfffd | 0x0005 |  0x0000  |              |
#  --------------------------------------------------------------------------------------------------------------------------------------------- 
# |  123  | 0x000c |  0x0a  | 0x0003 | 0x0002 | 0x0001 | 0xfffc | 0x0002 | 0x0c04 | 0xfffd | 0xfffd | 0xfffd | 0x0005 |  0x0000  |              |
#  --------------------------------------------------------------------------------------------------------------------------------------------- 
# |  124  | 0x000d |  0x00  | 0x0003 | 0x0002 | 0x0001 | 0xfffc | 0x0002 | 0x0c04 | 0xfffd | 0xfffd | 0xfffd | 0x0005 |  0x0000  |              |
# |  125  | 0x000d |  0x00  | 0x0003 | 0x0002 | 0x0001 | 0xfffc | 0x0002 | 0x0c04 | 0xfffd | 0xfffd | 0xfffd | 0x0005 |  0x0000  |              |
# |  126  | 0x000d |  0x00  | 0x0003 | 0x0002 | 0x0001 | 0xfffc | 0x0002 | 0x0c04 | 0xfffd | 0xfffd | 0xfffd | 0x0005 |  0x0000  |              |
# |  127  | 0x000d |  0x00  | 0x0003 | 0x0002 | 0x0002 | 0xfffc | 0x0002 | 0x0c04 | 0xfffd | 0xfffd | 0xfffd | 0x0005 |  0x0000  |              |
#  --------------------------------------------------------------------------------------------------------------------------------------------- 
# |  128  | 0x000e |  0x0c  | 0x0003 | 0x0002 | 0x0002 | 0xfffc | 0x0002 | 0x0c04 | 0xfffd | 0xfffd | 0xfffd | 0x0005 |  0x0000  |              |
# |  129  | 0x000e |  0x0c  | 0x0003 | 0x0002 | 0x0002 | 0xfffc | 0x0002 | 0x0c04 | 0xfffd | 0xfffd | 0xfffd | 0x0005 |  0x0000  |              |
